{
	"content": [
		{
			"id": 1,
			"trangThai": "ap_dung",
			"ngayTao": "2016-10-27T16:40:57.000+0000",
			"ngaySua": "2016-10-27T17:03:50.000+0000",
			"daXoa": false,
			"hoVaTen": "Trần Văn Hùng",
			"ngaySinh": "1980-10-05",
			"soDienThoai": "01206189116",
			"gioiTinh": 0,
			"soCmndHoChieu": "201456892",
			"ngayCap": "2010-12-21",
			"noiCap": "CA TP.Đà Nẵng",
			"quocTich": {
				"id": 1,
				"trangThai": "ap_dung",
				"ngayTao": "2016-10-27T16:40:57.000+0000",
				"ngaySua": "2016-10-27T17:03:50.000+0000",
				"daXoa": false,
				"ten": "Việt Nam"
			},
			"danToc": {
				"id": 1,
				"trangThai": "ap_dung",
				"ngayTao": "2016-10-27T16:40:57.000+0000",
				"ngaySua": "2016-10-27T17:03:50.000+0000",
				"daXoa": false,
				"ten": "Kinh"
			},
			"thanhPho": {
				"id": 1,
				"trangThai": "ap_dung",
				"ngayTao": "2016-10-27T16:40:57.000+0000",
				"ngaySua": "2016-10-27T17:03:50.000+0000",
				"daXoa": false,
				"ten": "Đà Nẵng"
			},
			"quanHuyen": {
				"id": 1,
				"trangThai": "ap_dung",
				"ngayTao": "2016-10-27T16:40:57.000+0000",
				"ngaySua": "2016-10-27T17:03:50.000+0000",
				"daXoa": false,
				"ten": "Hải Châu"
			},
			"phuongXa": {
				"id": 1,
				"trangThai": "ap_dung",
				"ngayTao": "2016-10-27T16:40:57.000+0000",
				"ngaySua": "2016-10-27T17:03:50.000+0000",
				"daXoa": false,
				"ten": "Nam Dương"
			},
			"to": {
				"id": 1,
				"trangThai": "ap_dung",
				"ngayTao": "2016-10-27T16:40:57.000+0000",
				"ngaySua": "2016-10-27T17:03:50.000+0000",
				"daXoa": false,
				"ten": "60"
			},
			"diaChi": "K30/49 Phan Châu Trinh"
		},
		{
			"id": 2,
			"trangThai": "ap_dung",
			"ngayTao": "2016-10-27T16:40:57.000+0000",
			"ngaySua": "2016-10-27T17:03:50.000+0000",
			"daXoa": false,
			"hoVaTen": "Nguyễn Văn An",
			"ngaySinh": "1981-14-07",
			"soDienThoai": "01226189252",
			"gioiTinh": 0,
			"soCmndHoChieu": "201456831",
			"ngayCap": "2010-12-21",
			"noiCap": "CA TP.Đà Nẵng",
			"danToc": {
				"id": 1,
				"trangThai": "ap_dung",
				"ngayTao": "2016-10-27T16:40:57.000+0000",
				"ngaySua": "2016-10-27T17:03:50.000+0000",
				"daXoa": false,
				"ten": "Kinh"
			},
			"quocTich": {
				"id": 1,
				"trangThai": "ap_dung",
				"ngayTao": "2016-10-27T16:40:57.000+0000",
				"ngaySua": "2016-10-27T17:03:50.000+0000",
				"daXoa": false,
				"ten": "Việt Nam"
			},
			"thanhPho": {
				"id": 1,
				"trangThai": "ap_dung",
				"ngayTao": "2016-10-27T16:40:57.000+0000",
				"ngaySua": "2016-10-27T17:03:50.000+0000",
				"daXoa": false,
				"ten": "Đà Nẵng"
			},
			"quanHuyen": {
				"id": 1,
				"trangThai": "ap_dung",
				"ngayTao": "2016-10-27T16:40:57.000+0000",
				"ngaySua": "2016-10-27T17:03:50.000+0000",
				"daXoa": false,
				"ten": "Hải Châu"
			},
			"phuongXa": {
				"id": 1,
				"trangThai": "ap_dung",
				"ngayTao": "2016-10-27T16:40:57.000+0000",
				"ngaySua": "2016-10-27T17:03:50.000+0000",
				"daXoa": false,
				"ten": "Nam Dương"
			},
			"to": {
				"id": 1,
				"trangThai": "ap_dung",
				"ngayTao": "2016-10-27T16:40:57.000+0000",
				"ngaySua": "2016-10-27T17:03:50.000+0000",
				"daXoa": false,
				"ten": "60"
			},
			"diaChi": "K30/49 Phan Châu Trinh"
		},
		{
			"id": 1,
			"trangThai": "ap_dung",
			"ngayTao": "2016-10-27T16:40:57.000+0000",
			"ngaySua": "2016-10-27T17:03:50.000+0000",
			"daXoa": false,
			"hoVaTen": "Trần Văn Hùng",
			"ngaySinh": "1980-10-05",
			"soDienThoai": "01206189116",
			"gioiTinh": 0,
			"soCmndHoChieu": "201456892",
			"ngayCap": "2010-12-21",
			"noiCap": "CA TP.Đà Nẵng",
			"quocTich": {
				"id": 1,
				"trangThai": "ap_dung",
				"ngayTao": "2016-10-27T16:40:57.000+0000",
				"ngaySua": "2016-10-27T17:03:50.000+0000",
				"daXoa": false,
				"ten": "Việt Nam"
			},
			"danToc": {
				"id": 1,
				"trangThai": "ap_dung",
				"ngayTao": "2016-10-27T16:40:57.000+0000",
				"ngaySua": "2016-10-27T17:03:50.000+0000",
				"daXoa": false,
				"ten": "Kinh"
			},
			"thanhPho": {
				"id": 1,
				"trangThai": "ap_dung",
				"ngayTao": "2016-10-27T16:40:57.000+0000",
				"ngaySua": "2016-10-27T17:03:50.000+0000",
				"daXoa": false,
				"ten": "Đà Nẵng"
			},
			"quanHuyen": {
				"id": 1,
				"trangThai": "ap_dung",
				"ngayTao": "2016-10-27T16:40:57.000+0000",
				"ngaySua": "2016-10-27T17:03:50.000+0000",
				"daXoa": false,
				"ten": "Hải Châu"
			},
			"phuongXa": {
				"id": 1,
				"trangThai": "ap_dung",
				"ngayTao": "2016-10-27T16:40:57.000+0000",
				"ngaySua": "2016-10-27T17:03:50.000+0000",
				"daXoa": false,
				"ten": "Nam Dương"
			},
			"to": {
				"id": 1,
				"trangThai": "ap_dung",
				"ngayTao": "2016-10-27T16:40:57.000+0000",
				"ngaySua": "2016-10-27T17:03:50.000+0000",
				"daXoa": false,
				"ten": "60"
			},
			"diaChi": "K30/49 Phan Châu Trinh"
		},
		{
			"id": 1,
			"trangThai": "ap_dung",
			"ngayTao": "2016-10-27T16:40:57.000+0000",
			"ngaySua": "2016-10-27T17:03:50.000+0000",
			"daXoa": false,
			"hoVaTen": "Trần Văn Hùng",
			"ngaySinh": "1980-10-05",
			"soDienThoai": "01206189116",
			"gioiTinh": 0,
			"soCmndHoChieu": "201456892",
			"ngayCap": "2010-12-21",
			"noiCap": "CA TP.Đà Nẵng",
			"quocTich": {
				"id": 1,
				"trangThai": "ap_dung",
				"ngayTao": "2016-10-27T16:40:57.000+0000",
				"ngaySua": "2016-10-27T17:03:50.000+0000",
				"daXoa": false,
				"ten": "Việt Nam"
			},
			"danToc": {
				"id": 1,
				"trangThai": "ap_dung",
				"ngayTao": "2016-10-27T16:40:57.000+0000",
				"ngaySua": "2016-10-27T17:03:50.000+0000",
				"daXoa": false,
				"ten": "Kinh"
			},
			"thanhPho": {
				"id": 1,
				"trangThai": "ap_dung",
				"ngayTao": "2016-10-27T16:40:57.000+0000",
				"ngaySua": "2016-10-27T17:03:50.000+0000",
				"daXoa": false,
				"ten": "Đà Nẵng"
			},
			"quanHuyen": {
				"id": 1,
				"trangThai": "ap_dung",
				"ngayTao": "2016-10-27T16:40:57.000+0000",
				"ngaySua": "2016-10-27T17:03:50.000+0000",
				"daXoa": false,
				"ten": "Hải Châu"
			},
			"phuongXa": {
				"id": 1,
				"trangThai": "ap_dung",
				"ngayTao": "2016-10-27T16:40:57.000+0000",
				"ngaySua": "2016-10-27T17:03:50.000+0000",
				"daXoa": false,
				"ten": "Nam Dương"
			},
			"to": {
				"id": 1,
				"trangThai": "ap_dung",
				"ngayTao": "2016-10-27T16:40:57.000+0000",
				"ngaySua": "2016-10-27T17:03:50.000+0000",
				"daXoa": false,
				"ten": "60"
			},
			"diaChi": "K30/49 Phan Châu Trinh"
		},
		{
			"id": 5,
			"trangThai": "ap_dung",
			"ngayTao": "2016-10-27T16:40:57.000+0000",
			"ngaySua": "2016-10-27T17:03:50.000+0000",
			"daXoa": false,
			"hoVaTen": "Nguyễn Thị Bông",
			"ngaySinh": "1980-10-05",
			"soDienThoai": "01206189116",
			"gioiTinh": false,
			"soCmndHoChieu": "201456892",
			"ngayCap": "2010-12-21",
			"noiCap": "CA TP.Đà Nẵng",
			"quocTich": {
				"id": 1,
				"trangThai": "ap_dung",
				"ngayTao": "2016-10-27T16:40:57.000+0000",
				"ngaySua": "2016-10-27T17:03:50.000+0000",
				"daXoa": false,
				"ten": "Việt Nam"
			},
			"danToc": {
				"id": 1,
				"trangThai": "ap_dung",
				"ngayTao": "2016-10-27T16:40:57.000+0000",
				"ngaySua": "2016-10-27T17:03:50.000+0000",
				"daXoa": false,
				"ten": "Kinh"
			},
			"thanhPho": {
				"id": 1,
				"trangThai": "ap_dung",
				"ngayTao": "2016-10-27T16:40:57.000+0000",
				"ngaySua": "2016-10-27T17:03:50.000+0000",
				"daXoa": false,
				"ten": "Đà Nẵng"
			},
			"quanHuyen": {
				"id": 1,
				"trangThai": "ap_dung",
				"ngayTao": "2016-10-27T16:40:57.000+0000",
				"ngaySua": "2016-10-27T17:03:50.000+0000",
				"daXoa": false,
				"ten": "Hải Châu"
			},
			"phuongXa": {
				"id": 1,
				"trangThai": "ap_dung",
				"ngayTao": "2016-10-27T16:40:57.000+0000",
				"ngaySua": "2016-10-27T17:03:50.000+0000",
				"daXoa": false,
				"ten": "Nam Dương"
			},
			"to": {
				"id": 1,
				"trangThai": "ap_dung",
				"ngayTao": "2016-10-27T16:40:57.000+0000",
				"ngaySua": "2016-10-27T17:03:50.000+0000",
				"daXoa": false,
				"ten": "60"
			},
			"diaChi": "K30/49 Phan Châu Trinh"
		}
	],
	"last": false,
	"totalPages": 22,
	"totalElements": 22,
	"first": true,
	"numberOfElements": 1,
	"sort": null,
	"size": 1,
	"number": 0
}
