{
	"content": [
		{
			"id": 5,
			"trangThai": "ap_dung",
			"ngayTao": "2016-10-27T16:40:57.000+0000",
			"ngaySua": "2016-10-27T17:03:50.000+0000",
			"daXoa": false,
			"don": {
				"id": 1,
				"trangThai": "ap_dung",
				"ngayTao": "2016-10-27T16:40:57.000+0000",
				"ngaySua": "2016-10-27T17:03:50.000+0000",
				"daXoa": false
			},
			"phanLoai": "Cá nhân",
			"tenCoQuan": null,
			"diaChiCoQuan": null,
			"soDienThoai": null,
			"phanLoaiCongDan": "nguoi_bi_khieu_to",
			"congDan": {
				"id": 5,
				"trangThai": "ap_dung",
				"ngayTao": "2016-10-27T16:40:57.000+0000",
				"ngaySua": "2016-10-27T17:03:50.000+0000",
				"daXoa": false,
				"hoVaTen": "Nguyễn Thị Bông",
				"gioiTinh": false,
				"danToc": {
					"id": 1,
					"trangThai": "ap_dung",
					"ngayTao": "2016-10-27T16:40:57.000+0000",
					"ngaySua": "2016-10-27T17:03:50.000+0000",
					"daXoa": false,
					"ten": "Kinh"
				},
				"quocTich": {
					"id": 1,
					"trangThai": "ap_dung",
					"ngayTao": "2016-10-27T16:40:57.000+0000",
					"ngaySua": "2016-10-27T17:03:50.000+0000",
					"daXoa": false,
					"ten": "Việt Nam"
				},
				"thanhPho": {
					"id": 1,
					"trangThai": "ap_dung",
					"ngayTao": "2016-10-27T16:40:57.000+0000",
					"ngaySua": "2016-10-27T17:03:50.000+0000",
					"daXoa": false,
					"ten": "Đà Nẵng"
				},
				"quanHuyen": {
					"id": 1,
					"trangThai": "ap_dung",
					"ngayTao": "2016-10-27T16:40:57.000+0000",
					"ngaySua": "2016-10-27T17:03:50.000+0000",
					"daXoa": false,
					"ten": "Hải Châu"
				},
				"phuongXa": {
					"id": 1,
					"trangThai": "ap_dung",
					"ngayTao": "2016-10-27T16:40:57.000+0000",
					"ngaySua": "2016-10-27T17:03:50.000+0000",
					"daXoa": false,
					"ten": "Nam Dương"
				},
				"to": {
					"id": 1,
					"trangThai": "ap_dung",
					"ngayTao": "2016-10-27T16:40:57.000+0000",
					"ngaySua": "2016-10-27T17:03:50.000+0000",
					"daXoa": false,
					"ten": "60"
				},
				"diaChi": "K30/49 Phan Châu Trinh"
			},
			"phanLoaiUyQuyen": null,
			"soTheLuatSu": null,
			"noiCapTheLuatSu": null,
			"donVi": null,
			"chucVu": null,
			"hoVaTen": "Nguyễn Thị Bông",
			"loaiDoiTuong": null,
			"soTiepDan": null
		}
	],
	"last": false,
	"totalPages": 22,
	"totalElements": 22,
	"first": true,
	"numberOfElements": 1,
	"sort": null,
	"size": 1,
	"number": 0
}
